[
  {
    "description": "ajouter un périphériques",
    "keyword": "Feature",
    "name": "test etk seting",
    "line": 1,
    "id": "test-etk-seting",
    "tags": [],
    "uri": "etkseting.feature",
    "elements": [
      {
        "id": "test-etk-seting;add-a-new-menu-périphériques",
        "keyword": "Scenario",
        "line": 4,
        "name": "add a new menu périphériques",
        "tags": [],
        "type": "scenario",
        "steps": [
          {
            "arguments": [],
            "keyword": "Given ",
            "line": 5,
            "name": "I open the browser",
            "result": {
              "status": "passed",
              "duration": 28310000000
            }
          },
          {
            "arguments": [],
            "keyword": "When ",
            "line": 6,
            "name": "I click the button 'Périphériques'",
            "result": {
              "status": "failed",
              "duration": 4859000000,
              "error_message": "AssertionError: Timed out retrying after 4000ms: Expected to find content: 'Périphériques' within the element: [ <span>, 12 more... ] but never did.\n    at Context.eval (http://192.168.2.52:8586/__cypress/tests?p=cypress\\integration\\etkseting.feature:43:18)\n    at Context.resolveAndRunStepDefinition (http://192.168.2.52:8586/__cypress/tests?p=cypress\\integration\\etkseting.feature:10446:29)\n    at Context.eval (http://192.168.2.52:8586/__cypress/tests?p=cypress\\integration\\etkseting.feature:9767:35)"
            }
          }
        ]
      }
    ]
  }
]